{
  "collectionName": "components_i18n_image_i18_images",
  "info": {
    "name": "i18Image",
    "icon": "address-book"
  },
  "options": {},
  "attributes": {
    "english": {
      "model": "file",
      "via": "related",
      "allowedTypes": [
        "images",
        "files",
        "videos"
      ],
      "plugin": "upload",
      "required": false
    },
    "thai": {
      "model": "file",
      "via": "related",
      "allowedTypes": [
        "images",
        "files",
        "videos"
      ],
      "plugin": "upload",
      "required": false
    }
  }
}
