{
  "collectionName": "components_i18n_text_internationalization_texts",
  "info": {
    "name": "internationalization short text",
    "icon": "align-justify",
    "description": ""
  },
  "options": {},
  "attributes": {
    "english": {
      "type": "string"
    },
    "thai": {
      "type": "string"
    }
  }
}
